<?xml version="1.0" encoding="UTF-8"?>
<svg width="2750px" height="1500px" viewBox="0 0 2750 1500" version="1.1" xmlns="http://www.w3.org/2000/svg" xmlns:xlink="http://www.w3.org/1999/xlink">
    <!-- Generator: Sketch 45 (43475) - http://www.bohemiancoding.com/sketch -->
    <title>acsweb-intro</title>
    <desc>Created with Sketch.</desc>
    <defs></defs>
    <g id="Page-1" stroke="none" stroke-width="1" fill="none" fill-rule="evenodd" opacity="0.15307971">
        <g id="acsweb-intro" stroke="#FFFFFF" stroke-width="2">
            <g id="library" transform="translate(1375.000000, 750.000000) rotate(45.000000) translate(-1375.000000, -750.000000) translate(23.000000, -602.000000)">
                <path d="M450.639236,751.10208 L751.065394,751.10208 L751.065394,450.675922 L450.639236,450.675922 L450.639236,751.10208 Z M751.065394,150.249765 L1351.91771,150.249765 L1351.91771,0.036685931 L751.065394,0.036685931 L751.065394,150.249765 Z M751.065394,300.462844 L1351.91771,300.462844 L1351.91771,150.249765 L751.065394,150.249765 L751.065394,300.462844 Z M751.065394,450.675922 L1351.91771,450.675922 L1351.91771,300.462844 L751.065394,300.462844 L751.065394,450.675922 Z M751.065394,600.889001 L1351.91771,600.889001 L1351.91771,450.675922 L751.065394,450.675922 L751.065394,600.889001 Z M600.852315,751.10208 L1351.91771,751.10208 L1351.91771,600.889001 L600.852315,600.889001 L600.852315,751.10208 Z M0,1351.9544 L150.213079,1351.9544 L150.213079,751.10208 L0,751.10208 L0,1351.9544 Z M150.213079,1351.9544 L300.426158,1351.9544 L300.426158,751.10208 L150.213079,751.10208 L150.213079,1351.9544 Z M300.426158,1351.9544 L450.639236,1351.9544 L450.639236,751.10208 L300.426158,751.10208 L300.426158,1351.9544 Z M450.639236,1351.9544 L600.852315,1351.9544 L600.852315,751.10208 L450.639236,751.10208 L450.639236,1351.9544 Z M600.852315,1351.9544 L751.065394,1351.9544 L751.065394,600.889001 L600.852315,600.889001 L600.852315,1351.9544 Z M751.065394,901.315159 L901.278473,901.315159 L901.278473,751.10208 L751.065394,751.10208 L751.065394,901.315159 Z M901.278473,901.315159 L1051.49155,901.315159 L1051.49155,751.10208 L901.278473,751.10208 L901.278473,901.315159 Z M901.278473,1051.52824 L1051.49155,1051.52824 L1051.49155,901.315159 L901.278473,901.315159 L901.278473,1051.52824 Z M1051.49155,901.315159 L1201.70463,901.315159 L1201.70463,751.10208 L1051.49155,751.10208 L1051.49155,901.315159 Z M751.065394,1051.52824 L901.278473,1051.52824 L901.278473,901.315159 L751.065394,901.315159 L751.065394,1051.52824 Z M751.065394,1201.74132 L901.278473,1201.74132 L901.278473,1051.52824 L751.065394,1051.52824 L751.065394,1201.74132 Z M450.639236,2253.23287 L751.065394,2253.23287 L751.065394,1952.80671 L450.639236,1952.80671 L450.639236,2253.23287 Z M0,1952.80671 L150.213079,1952.80671 L150.213079,1351.9544 L0,1351.9544 L0,1952.80671 Z M150.213079,1952.80671 L300.426158,1952.80671 L300.426158,1351.9544 L150.213079,1351.9544 L150.213079,1952.80671 Z M300.426158,1952.80671 L450.639236,1952.80671 L450.639236,1351.9544 L300.426158,1351.9544 L300.426158,1952.80671 Z M450.639236,1952.80671 L600.852315,1952.80671 L600.852315,1351.9544 L450.639236,1351.9544 L450.639236,1952.80671 Z" id="Stroke-1"></path>
                <path d="M600.852315,2103.01979 L751.065394,2103.01979 L751.065394,1351.9544 L600.852315,1351.9544 L600.852315,2103.01979 Z M751.065394,2703.8721 L1351.91771,2703.8721 L1351.91771,2553.65903 L751.065394,2553.65903 L751.065394,2703.8721 Z M751.065394,2553.65903 L1351.91771,2553.65903 L1351.91771,2403.44595 L751.065394,2403.44595 L751.065394,2553.65903 Z M751.065394,2403.44595 L1351.91771,2403.44595 L1351.91771,2253.23287 L751.065394,2253.23287 L751.065394,2403.44595 Z M751.065394,2253.23287 L1351.91771,2253.23287 L1351.91771,2103.01979 L751.065394,2103.01979 L751.065394,2253.23287 Z M600.852315,2103.01979 L1351.91771,2103.01979 L1351.91771,1952.80671 L600.852315,1952.80671 L600.852315,2103.01979 Z M751.065394,1952.80671 L901.278473,1952.80671 L901.278473,1802.59363 L751.065394,1802.59363 L751.065394,1952.80671 Z M751.065394,1802.59363 L901.278473,1802.59363 L901.278473,1652.38055 L751.065394,1652.38055 L751.065394,1802.59363 Z M901.278473,1802.59363 L1051.49155,1802.59363 L1051.49155,1652.38055 L901.278473,1652.38055 L901.278473,1802.59363 Z M751.065394,1652.38055 L901.278473,1652.38055 L901.278473,1502.16747 L751.065394,1502.16747 L751.065394,1652.38055 Z M901.278473,1952.80671 L1051.49155,1952.80671 L1051.49155,1802.59363 L901.278473,1802.59363 L901.278473,1952.80671 Z M1051.49155,1952.80671 L1201.70463,1952.80671 L1201.70463,1802.59363 L1051.49155,1802.59363 L1051.49155,1952.80671 Z M1952.77002,2253.23287 L2253.19618,2253.23287 L2253.19618,1952.80671 L1952.77002,1952.80671 L1952.77002,2253.23287 Z M1351.91771,2703.8721 L1952.77002,2703.8721 L1952.77002,2553.65903 L1351.91771,2553.65903 L1351.91771,2703.8721 Z M1351.91771,2553.65903 L1952.77002,2553.65903 L1952.77002,2403.44595 L1351.91771,2403.44595 L1351.91771,2553.65903 Z M1351.91771,2403.44595 L1952.77002,2403.44595 L1952.77002,2253.23287 L1351.91771,2253.23287 L1351.91771,2403.44595 Z M1351.91771,2253.23287 L1952.77002,2253.23287 L1952.77002,2103.01979 L1351.91771,2103.01979 L1351.91771,2253.23287 Z M1351.91771,2103.01979 L2102.9831,2103.01979 L2102.9831,1952.80671 L1351.91771,1952.80671 L1351.91771,2103.01979 Z M2553.62234,1952.80671 L2703.83542,1952.80671 L2703.83542,1351.9544 L2553.62234,1351.9544 L2553.62234,1952.80671 Z M2403.40926,1952.80671 L2553.62234,1952.80671 L2553.62234,1351.9544 L2403.40926,1351.9544 L2403.40926,1952.80671 Z M2253.19618,1952.80671 L2403.40926,1952.80671 L2403.40926,1351.9544 L2253.19618,1351.9544 L2253.19618,1952.80671 Z M2102.9831,1952.80671 L2253.19618,1952.80671 L2253.19618,1351.9544 L2102.9831,1351.9544 L2102.9831,1952.80671 Z" id="Stroke-3"></path>
                <path d="M1952.77002,2103.01979 L2102.9831,2103.01979 L2102.9831,1351.9544 L1952.77002,1351.9544 L1952.77002,2103.01979 Z M1802.55695,1952.80671 L1952.77002,1952.80671 L1952.77002,1802.59363 L1802.55695,1802.59363 L1802.55695,1952.80671 Z M1652.34387,1952.80671 L1802.55695,1952.80671 L1802.55695,1802.59363 L1652.34387,1802.59363 L1652.34387,1952.80671 Z M1652.34387,1802.59363 L1802.55695,1802.59363 L1802.55695,1652.38055 L1652.34387,1652.38055 L1652.34387,1802.59363 Z M1502.13079,1952.80671 L1652.34387,1952.80671 L1652.34387,1802.59363 L1502.13079,1802.59363 L1502.13079,1952.80671 Z M1802.55695,1802.59363 L1952.77002,1802.59363 L1952.77002,1652.38055 L1802.55695,1652.38055 L1802.55695,1802.59363 Z M1802.55695,1652.38055 L1952.77002,1652.38055 L1952.77002,1502.16747 L1802.55695,1502.16747 L1802.55695,1652.38055 Z M1952.77002,751.10208 L2253.19618,751.10208 L2253.19618,450.675922 L1952.77002,450.675922 L1952.77002,751.10208 Z M2553.62234,1351.9544 L2703.83542,1351.9544 L2703.83542,751.10208 L2553.62234,751.10208 L2553.62234,1351.9544 Z M2403.40926,1351.9544 L2553.62234,1351.9544 L2553.62234,751.10208 L2403.40926,751.10208 L2403.40926,1351.9544 Z M2253.19618,1351.9544 L2403.40926,1351.9544 L2403.40926,751.10208 L2253.19618,751.10208 L2253.19618,1351.9544 Z M2102.9831,1351.9544 L2253.19618,1351.9544 L2253.19618,751.10208 L2102.9831,751.10208 L2102.9831,1351.9544 Z M1952.77002,1351.9544 L2102.9831,1351.9544 L2102.9831,600.889001 L1952.77002,600.889001 L1952.77002,1351.9544 Z M1351.91771,150.249765 L1952.77002,150.249765 L1952.77002,0.036685931 L1351.91771,0.036685931 L1351.91771,150.249765 Z M1351.91771,300.462844 L1952.77002,300.462844 L1952.77002,150.249765 L1351.91771,150.249765 L1351.91771,300.462844 Z M1351.91771,450.675922 L1952.77002,450.675922 L1952.77002,300.462844 L1351.91771,300.462844 L1351.91771,450.675922 Z M1351.91771,600.889001 L1952.77002,600.889001 L1952.77002,450.675922 L1351.91771,450.675922 L1351.91771,600.889001 Z M1351.91771,751.10208 L2102.9831,751.10208 L2102.9831,600.889001 L1351.91771,600.889001 L1351.91771,751.10208 Z M1802.55695,901.315159 L1952.77002,901.315159 L1952.77002,751.10208 L1802.55695,751.10208 L1802.55695,901.315159 Z M1802.55695,1051.52824 L1952.77002,1051.52824 L1952.77002,901.315159 L1802.55695,901.315159 L1802.55695,1051.52824 Z M1652.34387,1051.52824 L1802.55695,1051.52824 L1802.55695,901.315159 L1652.34387,901.315159 L1652.34387,1051.52824 Z M1802.55695,1201.74132 L1952.77002,1201.74132 L1952.77002,1051.52824 L1802.55695,1051.52824 L1802.55695,1201.74132 Z" id="Stroke-4"></path>
                <path d="M1652.34387,901.315159 L1802.55695,901.315159 L1802.55695,751.10208 L1652.34387,751.10208 L1652.34387,901.315159 Z M1502.13079,901.315159 L1652.34387,901.315159 L1652.34387,751.10208 L1502.13079,751.10208 L1502.13079,901.315159 Z" id="Stroke-5"></path>
            </g>
        </g>
    </g>
</svg>